…
## Examples

``` r
cat <- rule_catalog()
nrow(cat)                                       # total rules
#> [1] 1865

# Rules with an executable predicate
sum(cat$has_predicate)
#> [1] 1861

# Filter by standard
cat[cat$standard == "ADaM-IG", ]
#> # A tibble: 790 × 7
#>    rule_id standard authority severity message          source_document
#>    <chr>   <chr>    <chr>     <chr>    <chr>            <chr>          
#>  1 1       ADaM-IG  CDISC     Medium   ADSL dataset do… CDISC ADaM Con…
#>  2 10      ADaM-IG  CDISC     Medium   A variable with… CDISC ADaM Con…
#>  3 102     ADaM-IG  CDISC     Medium   For every uniqu… CDISC ADaM Con…
#>  4 103     ADaM-IG  CDISC     Medium   For every uniqu… CDISC ADaM Con…
#>  5 104     ADaM-IG  CDISC     Medium   For every uniqu… CDISC ADaM Con…
#>  6 105     ADaM-IG  CDISC     Medium   There is more t… CDISC ADaM Con…
#>  7 106     ADaM-IG  CDISC     Medium   There is more t… CDISC ADaM Con…
#>  8 109     ADaM-IG  CDISC     Medium   Within a given … CDISC ADaM Con…
#>  9 11      ADaM-IG  CDISC     Medium   A variable with… CDISC ADaM Con…
#> 10 110     ADaM-IG  CDISC     Medium   Within a given … CDISC ADaM Con…
#> # ℹ 780 more rows
#> # ℹ 1 more variable: has_predicate <lgl>
cat[cat$standard == "SDTM-IG", ]
#> # A tibble: 740 × 7
#>    rule_id standard authority severity message          source_document
#>    <chr>   <chr>    <chr>     <chr>    <chr>            <chr>          
#>  1 CG0001  SDTM-IG  CDISC     Medium   DOMAIN = valid … CDISC SDTM and…
#>  2 CG0002  SDTM-IG  CDISC     Medium   --DUR collected… CDISC SDTM and…
#>  3 CG0006  SDTM-IG  CDISC     Medium   --DY calculated… CDISC SDTM and…
#>  4 CG0007  SDTM-IG  CDISC     Medium   --DY = null      CDISC SDTM and…
#>  5 CG0008  SDTM-IG  CDISC     Medium   --ELTM = null    CDISC SDTM and…
#>  6 CG0009  SDTM-IG  CDISC     Medium   EPOCH in TA.EPO… CDISC SDTM and…
#>  7 CG0010  SDTM-IG  CDISC     Medium   Metadata attrib… CDISC SDTM and…
#>  8 CG0011  SDTM-IG  CDISC     Medium   Variable Format… CDISC SDTM and…
#>  9 CG0012  SDTM-IG  CDISC     Medium   Variable Type =… CDISC SDTM and…
#> 10 CG0013  SDTM-IG  CDISC     Medium   Variable = Mode… CDISC SDTM and…
#> # ℹ 730 more rows
#> # ℹ 1 more variable: has_predicate <lgl>
…
