Validate CDISC clinical data against the conformance rule catalog — validate • herald
…
# \donttest{
dm   <- readRDS(system.file("extdata", "dm.rds",        package = "herald"))
spec <- readRDS(system.file("extdata", "sdtm-spec.rds", package = "herald"))
dm   <- apply_spec(dm, spec)
ae   <- data.frame(STUDYID = "PILOT01", DOMAIN = "AE", USUBJID = "PILOT01-001-001",
                   AETERM = "HEADACHE", AEDECOD = "Headache",
                   stringsAsFactors = FALSE)

# single dataset -- name inferred from variable (dm -> "DM")
r <- validate(files = dm, quiet = TRUE)
r$datasets_checked
#> [1] "DM"
r$findings[r$findings$status == "fired", c("rule_id", "message")]
#> # A tibble: 105 × 2
#>    rule_id     message                                            
#>    <chr>       <chr>                                              
#>  1 1           ADSL dataset does not exist                        
#>  2 CG0313      STUDYID, USUBJID or POOLID, DOMAIN, and DMSEQ exist
#>  3 CG0501      TM dataset present in study                        
#>  4 CG0502      TM dataset present in study                        
#>  5 CORE-000655 Values between ARMCD and ACTARMCD are not matching 
#>  6 CORE-000655 Values between ARMCD and ACTARMCD are not matching 
#>  7 CORE-000655 Values between ARMCD and ACTARMCD are not matching 
#>  8 CORE-000655 Values between ARMCD and ACTARMCD are not matching 
#>  9 CORE-000655 Values between ARMCD and ACTARMCD are not matching 
#> 10 CORE-000655 Values between ARMCD and ACTARMCD are not matching 
#> # ℹ 95 more rows
…
